Estimate monthly wetland operational modes — estimate_wetland_mode • WHAT
…
Relatively small fluctuations in the extent of flooding are ignored and
assumed to reflect noise in the remote sensing data. In addition,
WaterTracker data are not yet capable of automatically detecting cropped
status. Values for N may be changed manually to C as needed.

    Examples

df = format_watertracker(sampledat) |> estimate_flood_extent() |> estimate_flood_delta()
estimate_wetland_mode(df)
#> # A tibble: 2,123 × 12
#>    WETLAND      unit  CLASS AREA_HA AREA_AC AREA_AC_WETTED wateryear  year month
#>    <chr>        <chr> <chr>   <dbl>   <dbl>          <dbl>     <dbl> <dbl> <dbl>
#>  1 SampleWetla… Samp… mana…    37.1    91.6           61.2      2013  2013     5
#>  2 SampleWetla… Samp… mana…    37.1    91.6           61.2      2013  2013     6
#>  3 SampleWetla… Samp… mana…    37.1    91.6           61.2      2013  2013     7
#>  4 SampleWetla… Samp… mana…    37.1    91.6           61.2      2013  2013     8
#>  5 SampleWetla… Samp… mana…    37.1    91.6           61.2      2013  2013     9
#>  6 SampleWetla… Samp… mana…    37.1    91.6           61.2      2014  2013    10
#>  7 SampleWetla… Samp… mana…    37.1    91.6           61.2      2014  2013    11
#>  8 SampleWetla… Samp… mana…    37.1    91.6           61.2      2014  2013    12
#>  9 SampleWetla… Samp… mana…    37.1    91.6           61.2      2014  2014     1
#> 10 SampleWetla… Samp… mana…    37.1    91.6           61.2      2014  2014     2
#> # ℹ 2,113 more rows
#> # ℹ 3 more variables: month_name <fct>, flood_prop_max <dbl>, mode <chr>
…
